[
  {
    "city":"Washington, D.C.",
    "country":"US",
    "lat": 38.899393,
    "long": 76.992695,
    "date":"Nov 2013",
    "org":"USENIX",
    "event":"LISA 2013"
  },
  {
    "city":"New York City",
    "country":"US",
    "lat": 40.78853,
    "long": -73.946246,
    "date":"Sep 2013",
    "org":"Interop",
    "event":"Interop New York 2013"
  },
  {
    "city":"Raleigh, NC",
    "country":"US",
    "lat": 35.787154,
    "long": -78.642146,
    "date":"Jan 2013",
    "org":"OWASP",
    "event":"Raleigh NC Chapter Meeting"
  },
  {
    "city":"New Jersey",
    "country":"US",
    "lat": 40.085172,
    "long": -74.414159,
    "date":"Sep 2012",
    "org":"ISACA",
    "event":"chapter full-day workshop"
  },
  {
    "city":"Raleigh, NC",
    "country":"US",
    "lat": 35.787154,
    "long": -78.642146,
    "date":"May 2012",
    "org":"CarolinaCon",
    "event":"CarolinaCon 8"
  },
  {
    "city":"Las Vegas",
    "country":"US",
    "lat": 36.319059,
    "long": -115.551255,
    "date":"May 2012",
    "org":"Interop",
    "event":"Interop 2012"
  },
  {
    "city":"Raleigh, NC",
    "country":"US",
    "lat": 35.787154,
    "long": -78.642146,
    "date":"Mar 2012",
    "org":"OWASP",
    "event":"Raleigh NC Chapter Meeting"
  },
  {
    "city":"Raleigh, NC",
    "country":"US",
    "lat": 35.787154,
    "long": -78.642146,
    "date":"Aug 2011",
    "org":"OWASP",
    "event":"Raleigh NC Chapter Meeting"
  },
  {
    "city":"Raleigh, NC",
    "country":"US",
    "lat": 35.787154,
    "long": -78.642146,
    "date":"Jun 2011",
    "org":"OWASP",
    "event":"Raleigh NC Chapter Meeting"
  },
  {
    "city":"Las Vegas",
    "country":"US",
    "lat": 36.319059,
    "long": -115.551255,
    "date":"May 2011",
    "org":"ISACA",
    "event":"NACACS"
  },
  {
    "city":"Toronto",
    "country":"Canada",
    "lat": 43.675117,
    "long":-79.456601,
    "date":"Mar 2011",
    "org":"Canadian Financial Institute (CFI)",
    "event":"CIRT Training Day"
  },
  {
    "city":"Manchester",
    "country":"England",
    "lat": 53.442295,
    "long":-2.2324270000000013,
    "date":"Mar 2011",
    "org":"ISACA",
    "event":"EuroCACS"
  },
  {
    "city":"Raleigh, NC",
    "country":"US",
    "lat": 35.787154,
    "long": -78.642146,
    "date":"Feb 2011",
    "org":"OWASP",
    "event":"Raleigh NC Chapter Meeting"
  },
  {
    "city":"Washington, D.C.",
    "country":"US",
    "lat": 38.899393,
    "long": 76.992695,
    "date":"Nov 2010",
    "org":"OWASP",
    "event":"AppSec DC 2010"
  },
  {
    "city":"Las Vegas",
    "country":"US",
    "lat": 36.319059,
    "long": -115.551255,
    "date":"Apr 2010",
    "org":"Interop",
    "event":"Interop 2010"
  },
  {
    "city":"Las Vegas",
    "country":"US",
    "lat": 36.319059,
    "long": -115.551255,
    "date":"Apr 2010",
    "org":"ISACA",
    "event":"NACACS"
  },
  {
    "city":"New Jersey",
    "country":"US",
    "lat": 40.085172,
    "long": -74.414159,
    "date":"Mar 2010",
    "org":"ISACA",
    "event":"chapter multi-day workshops"
  },
  {
    "city":"Hong Kong",
    "country":"Hong Kong",
    "lat": 22.259589,
    "long": 114.16405299999997,
    "date":"Nov 2009",
    "org":"Hong Kong Productivity Council (HKPC)",
    "event":"IS Summit"
  },
  {
    "city":"Washington, D.C.",
    "country":"US",
    "lat": 38.899393,
    "long": 76.992695,
    "date":"Nov 2009",
    "org":"USENIX",
    "event":"LISA 2009"
  },
  {
    "city":"\u00a0",
    "country":"Scotland",
    "lat": 56.19729,
    "long": -3.2978530000000035,
    "date":"Mar 2009",
    "org":"ISACA",
    "event":"chapter full-day workshop"
  },
  {
    "city":"Washington, D.C.",
    "country":"US",
    "lat": 38.899393,
    "long": 76.992695,
    "date":"Jun 2008",
    "org":"MIS Training Institute",
    "event":"DLP 2008"
  },
  {
    "city":"Orlando",
    "country":"US",
    "lat": 28.493956,
    "long": -81.271904,
    "date":"Mar 2008",
    "org":"MIS Training Institute",
    "event":"InfoSec 2008"
  },
  {
    "city":"Hong Kong",
    "country":"Hong Kong",
    "lat": 22.259589,
    "long": 114.16405299999997,
    "date":"Nov 2007",
    "org":"Hong Kong Productivity Council (HKPC)",
    "event":"IS Summit"
  },
  {
    "city":"Boston",
    "country":"US",
    "lat":42.319164,
    "long": -71.06934,
    "date":"Aug 2007",
    "org":"USENIX",
    "event":"USENIX Security 2007"
  },
  {
    "city":"Toronto",
    "country":"Canada",
    "lat": 43.675117,
    "long":-79.456601,
    "date":"Apr 2007",
    "org":"Canadian Financial Institute (CFI)",
    "event":"CIRT Training Day"
  },
  {
    "city":"Orlando",
    "country":"US",
    "lat": 28.493956,
    "long": -81.271904,
    "date":"Mar 2007",
    "org":"MIS Training Institute",
    "event":"InfoSec 2007"
  },
  {
    "city":"Toronto",
    "country":"Canada",
    "lat": 43.675117,
    "long":-79.456601,
    "date":"Feb 2007",
    "org":"Canadian Financial Institute (CFI)",
    "event":"Security Professional Development Day"
  },
  {
    "city":"Washington, D.C.",
    "country":"US",
    "lat": 38.899393,
    "long": 76.992695,
    "date":"Dec 2006",
    "org":"USENIX",
    "event":"LISA 2006"
  },
  {
    "city":"Hong Kong",
    "country":"Hong Kong",
    "lat": 22.259589,
    "long": 114.16405299999997,
    "date":"Nov 2006",
    "org":"Hong Kong Productivity Council (HKPC)",
    "event":"IS Summit"
  },
  {
    "city":"Boston",
    "country":"US",
    "lat":42.319164,
    "long": -71.06934,
    "date":"Nov 2006",
    "org":"MIS Training Institute",
    "event":"Annual Audit Conference"
  },
  {
    "city":"Houston",
    "country":"US",
    "lat": 29.785045,
    "long": -95.436783,
    "date":"Oct 2006",
    "org":"SANS Institute",
    "event":"SANS Houston 2002"
  },
  {
    "city":"San Francisco",
    "country":"US",
    "lat": 37.759494,
    "long": -122.448157,
    "date":"Sep 2006",
    "org":"MIS Training Institute",
    "event":"IT Security World 2006"
  },
  {
    "city":"New Jersey",
    "country":"US",
    "lat": 40.085172,
    "long": -74.414159,
    "date":"Aug 2006",
    "org":"ISACA",
    "event":"chapter full-day workshop"
  },
  {
    "city":"Toronto",
    "country":"Canada",
    "lat": 43.675117,
    "long":-79.456601,
    "date":"Jun 2006",
    "org":"ISACA",
    "event":"chapter full-day workshop"
  },
  {
    "city":"Dallas",
    "country":"US",
    "lat": 32.817779,
    "long": -96.813869,
    "date":"May 2006",
    "org":"Dallascon",
    "event":"\u00a0"
  },
  {
    "city":"Orlando",
    "country":"US",
    "lat": 28.493956,
    "long": -81.271904,
    "date":"Apr 2006",
    "org":"MIS Training Institute",
    "event":"InfoSec 2006"
  },
  {
    "city":"Toronto",
    "country":"Canada",
    "lat": 43.675117,
    "long":-79.456601,
    "date":"Feb 2006",
    "org":"Canadian Financial Institute (CFI)",
    "event":"Security Professional Development Day"
  },
  {
    "city":"Washington, D.C.",
    "country":"US",
    "lat": 38.899393,
    "long": 76.992695,
    "date":"Dec 2005",
    "org":"USENIX",
    "event":"LISA 2005"
  },
  {
    "city":"Hong Kong",
    "country":"Hong Kong",
    "lat": 22.259589,
    "long": 114.16405299999997,
    "date":"Nov 2005",
    "org":"Hong Kong Productivity Council (HKPC)",
    "event":"IS Summit"
  },
  {
    "city":"Las Vegas",
    "country":"US",
    "lat": 36.319059,
    "long": -115.551255,
    "date":"Sep 2005",
    "org":"ISACA",
    "event":"Network Security"
  },
  {
    "city":"San Francisco",
    "country":"US",
    "lat": 37.759494,
    "long": -122.448157,
    "date":"Sep 2005",
    "org":"MIS Training Institute",
    "event":"IT Security World 2005"
  },
  {
    "city":"Toronto",
    "country":"Canada",
    "lat": 43.675117,
    "long":-79.456601,
    "date":"Jun 2005",
    "org":"ISACA",
    "event":"chapter full-day workshop"
  },
  {
    "city":"Oslo",
    "country":"Norway",
    "lat": 59.972418,
    "long": 10.77571900000001,
    "date":"Jun 2005",
    "org":"ISACA",
    "event":"International Conference"
  },
  {
    "city":"Athens",
    "country":"Greece",
    "lat": 37.964527,
    "long": 23.726587999999992,
    "date":"Jun 2005",
    "org":"MIS Training Institute",
    "event":"MIS / Comdex Event"
  },
  {
    "city":"Boston",
    "country":"US",
    "lat":42.319164,
    "long": -71.06934,
    "date":"Jun 2005",
    "org":"MIS Training Institute",
    "event":"eFraud Conference"
  },
  {
    "city":"Dallas",
    "country":"US",
    "lat": 32.817779,
    "long": -96.813869,
    "date":"May 2005",
    "org":"Dallascon",
    "event":"\u00a0"
  },
  {
    "city":"Orlando",
    "country":"US",
    "lat": 28.493956,
    "long": -81.271904,
    "date":"Apr 2005",
    "org":"MIS Training Institute",
    "event":"InfoSec 2005"
  },
  {
    "city":"Anaheim",
    "country":"US",
    "lat": 33.832611,
    "long": -117.936334,
    "date":"Apr 2005",
    "org":"USENIX",
    "event":"USENIX 2005"
  },
  {
    "city":"Hong Kong",
    "country":"Hong Kong",
    "lat": 22.259589,
    "long": 114.16405299999997,
    "date":"Nov 2004",
    "org":"Hong Kong Productivity Council (HKPC)",
    "event":"IS Summit"
  },
  {
    "city":"Washington, D.C.",
    "country":"US",
    "lat": 38.899393,
    "long": 76.992695,
    "date":"Nov 2004",
    "org":"USENIX",
    "event":"LISA 2004"
  },
  {
    "city":"Helsinki",
    "country":"Finland",
    "lat": 60.156217,
    "long": 25.021918,
    "date":"Sep 2004",
    "org":"ISACA",
    "event":"chapter multi-day workshops"
  },
  {
    "city":"California",
    "country":"US",
    "lat": 37.419488,
    "long": 120.139387,
    "date":"Aug 2004",
    "org":"MIS Training Institute",
    "event":"WebSec 2004"
  },
  {
    "city":"Boston",
    "country":"US",
    "lat":42.319164,
    "long": -71.06934,
    "date":"Aug 2004",
    "org":"USENIX",
    "event":"USENIX Security 2004"
  },
  {
    "city":"Las Vegas",
    "country":"US",
    "lat": 36.319059,
    "long": -115.551255,
    "date":"Jul 2004",
    "org":"Black Hat",
    "event":"Black Hat 2004"
  },
  {
    "city":"Boston",
    "country":"US",
    "lat":42.319164,
    "long": -71.06934,
    "date":"Jun 2004",
    "org":"USENIX",
    "event":"USENIX 2004"
  },
  {
    "city":"Dallas",
    "country":"US",
    "lat": 32.817779,
    "long": -96.813869,
    "date":"May 2004",
    "org":"Dallascon",
    "event":"\u00a0"
  },
  {
    "city":"Las Vegas",
    "country":"US",
    "lat": 36.319059,
    "long": -115.551255,
    "date":"May 2004",
    "org":"ISACA",
    "event":"NACACS"
  },
  {
    "city":"Orlando",
    "country":"US",
    "lat": 28.493956,
    "long": -81.271904,
    "date":"Mar 2004",
    "org":"MIS Training Institute",
    "event":"InfoSec 2004"
  },
  {
    "city":"London",
    "country":"England",
    "lat": 51.499573,
    "long": 0.13571400000000722,
    "date":"Mar 2004",
    "org":"MIS Training Institute",
    "event":"WebSec UK 2004"
  },
  {
    "city":"Toronto",
    "country":"Canada",
    "lat": 43.675117,
    "long":-79.456601,
    "date":"Feb 2004",
    "org":"Canadian Financial Institute (CFI)",
    "event":"Security Professional Development Day"
  },
  {
    "city":"Hartford",
    "country":"US",
    "lat": 41.765604,
    "long": -72.690588,
    "date":"Feb 2004",
    "org":"ISACA",
    "event":"chapter full-day workshop"
  },
  {
    "city":"Dallas",
    "country":"US",
    "lat": 32.817779,
    "long": -96.813869,
    "date":"Jan 2004",
    "org":"Dallascon",
    "event":"\u00a0"
  },
  {
    "city":"New Jersey",
    "country":"US",
    "lat": 40.085172,
    "long": -74.414159,
    "date":"Jan 2004",
    "org":"ISACA",
    "event":"chapter full-day workshop"
  },
  {
    "city":"\u00a0",
    "country":"US",
    "long":"",
    "lat":"",
    "date":"Dec 2003",
    "org":"MIS Training Institute",
    "event":"InfoWar 2003"
  },
  {
    "city":"Hong Kong",
    "country":"Hong Kong",
    "lat": 22.259589,
    "long": 114.16405299999997,
    "date":"Nov 2003",
    "org":"Hong Kong Productivity Council (HKPC)",
    "event":"IS Summit"
  },
  {
    "city":"Hartford",
    "country":"US",
    "lat": 41.765604,
    "long": -72.690588,
    "date":"Oct 2003",
    "org":"ISACA",
    "event":"chapter full-day workshop"
  },
  {
    "city":"Washington, D.C.",
    "country":"US",
    "lat": 38.899393,
    "long": 76.992695,
    "date":"Oct 2003",
    "org":"USENIX",
    "event":"LISA 2003"
  },
  {
    "city":"Las Vegas",
    "country":"US",
    "lat": 36.319059,
    "long": -115.551255,
    "date":"Sep 2003",
    "org":"ISACA",
    "event":"Network Security"
  },
  {
    "city":"Boston",
    "country":"US",
    "lat":42.319164,
    "long": -71.06934,
    "date":"Aug 2003",
    "org":"USENIX",
    "event":"USENIX Security 2003"
  },
  {
    "city":"Las Vegas",
    "country":"US",
    "lat": 36.319059,
    "long": -115.551255,
    "date":"Aug 2003",
    "org":"DecCon",
    "event":"DefCon 11"
  },
  {
    "city":"California",
    "country":"US",
    "lat": 37.419488,
    "long": 120.139387,
    "date":"Jul 2003",
    "org":"MIS Training Institute",
    "event":"WebSec 2003"
  },
  {
    "city":"Orlando",
    "country":"US",
    "lat": 28.493956,
    "long": -81.271904,
    "date":"Jul 2003",
    "org":"Vanguard",
    "event":"Vanguard Enterprise Security Expo"
  },
  {
    "city":"Boston",
    "country":"US",
    "lat":42.319164,
    "long": -71.06934,
    "date":"Jun 2003",
    "org":"USENIX",
    "event":"USENIX 2003"
  },
  {
    "city":"Las Vegas",
    "country":"US",
    "lat": 36.319059,
    "long": -115.551255,
    "date":"May 2003",
    "org":"ISACA",
    "event":"NACACS"
  },
  {
    "city":"\u00a0",
    "country":"US",
    "long":"",
    "lat":"",
    "date":"Apr 2003",
    "org":"MIS Training Institute",
    "event":"IS Government Forum 2003"
  },
  {
    "city":"Orlando",
    "country":"US",
    "lat": 28.493956,
    "long": -81.271904,
    "date":"Mar 2003",
    "org":"MIS Training Institute",
    "event":"InfoSec 2003"
  },
  {
    "city":"Washington, D.C.",
    "country":"US",
    "lat": 38.899393,
    "long": 76.992695,
    "date":"Feb 2003",
    "org":"IDG",
    "event":"COMNET 2003"
  },
  {
    "city":"\u00a0",
    "country":"US",
    "long":"",
    "lat":"",
    "date":"Dec 2002",
    "org":"MIS Training Institute",
    "event":"IIA Conrol & Audit 2002"
  },
  {
    "city":"Munich",
    "country":"Germany",
    "lat": 48.15247,
    "long": 11.54178300000001,
    "date":"Nov 2002",
    "org":"ISACA",
    "event":"EuroCACS"
  },
  {
    "city":"Washington, D.C.",
    "country":"US",
    "lat": 38.899393,
    "long": 76.992695,
    "date":"Nov 2002",
    "org":"USENIX",
    "event":"LISA 2002"
  },
  {
    "city":"Texas",
    "country":"US",
    "lat": 31.319819,
    "long": -99.810297,
    "date":"Oct 2002",
    "org":"Office of Thrift Supervision",
    "event":"OTS Inter-Agency IT Security Conference"
  },
  {
    "city":"California",
    "country":"US",
    "lat": 37.419488,
    "long": 120.139387,
    "date":"Aug 2002",
    "org":"MIS Training Institute",
    "event":"WebSec 2002"
  },
  {
    "city":"Singapore",
    "country":"Singapore",
    "lat": 1.365396,
    "long": 103.825964,
    "date":"Aug 2002",
    "org":"Sensecurity",
    "event":"National Web Security 2002"
  },
  {
    "city":"Kuala Lumpur",
    "country":"Malaysia",
    "lat": 3.128957,
    "long": 101.68780900000002,
    "date":"Aug 2002",
    "org":"Sensecurity",
    "event":"Web Security Bootcamp"
  },
  {
    "city":"Boston",
    "country":"US",
    "lat":42.319164,
    "long": -71.06934,
    "date":"Jun 2002",
    "org":"SANS Institute",
    "event":"SANSFIRE Boston 2002"
  },
  {
    "city":"Hong Kong",
    "country":"Hong Kong",
    "lat": 22.259589,
    "long": 114.16405299999997,
    "date":"Jun 2002",
    "org":"Hong Kong Productivity Counsil (HKPC)",
    "event":"IS Showcase"
  },
  {
    "city":"Orlando",
    "country":"US",
    "lat": 28.493956,
    "long": -81.271904,
    "date":"Apr 2002",
    "org":"SANS Institute",
    "event":"\u00a0"
  },
  {
    "city":"London",
    "country":"England",
    "lat": 51.499573,
    "long": 0.13571400000000722,
    "date":"Mar 2002",
    "org":"MIS Training Institute",
    "event":"WebSec UK 2002"
  },
  {
    "city":"Orlando",
    "country":"US",
    "lat": 28.493956,
    "long": -81.271904,
    "date":"Mar 2002",
    "org":"MIS Training Institute",
    "event":"InfoSec 2002"
  },
  {
    "city":"Phoenix",
    "country":"US",
    "lat": 33.546136,
    "long": -112.073254,
    "date":"Mar 2002",
    "org":"SANS Institute",
    "event":"\u00a0"
  },
  {
    "city":"Copenhagen",
    "country":"Denmark",
    "lat": 55.680139,
    "long": 12.549420999999995,
    "date":"Feb 2002",
    "org":"ISACA",
    "event":"chapter multi-day workshops"
  },
  {
    "city":"Boston",
    "country":"US",
    "lat":42.319164,
    "long": -71.06934,
    "date":"Feb 2002",
    "org":"MIS Training Institute",
    "event":"PKI 2002"
  },
  {
    "city":"Monterey",
    "country":"US",
    "lat": 36.58405,
    "long": -121.868417,
    "date":"Feb 2002",
    "org":"SANS Institute",
    "event":"\u00a0"
  },
  {
    "city":"\u00a0",
    "country":"Singapore",
    "lat": 1.365396,
    "long": 103.825964,
    "date":"Feb 2002",
    "org":"Sensecurity",
    "event":"Singapore National Anti-Hacking Conference"
  },
  {
    "city":"Vancouver",
    "country":"Canada",
    "lat": 49.259519,
    "long": -123.129456,
    "date":"Dec 2001",
    "org":"SANS Institute",
    "event":"\u00a0"
  },
  {
    "city":"Salt Lake City",
    "country":"US",
    "lat": 40.719608,
    "long": -111.839035,
    "date":"Nov 2001",
    "org":"ISACA",
    "event":"chapter full-day workshop"
  },
  {
    "city":"\u00a0",
    "country":"US",
    "long":"",
    "lat":"",
    "date":"Oct 2001",
    "org":"SANS Institute",
    "event":"Network Security 2001"
  },
  {
    "city":"California",
    "country":"US",
    "lat": 37.419488,
    "long": 120.139387,
    "date":"Aug 2001",
    "org":"CMP Media",
    "event":"conference"
  },
  {
    "city":"California",
    "country":"US",
    "lat": 37.419488,
    "long": 120.139387,
    "date":"Aug 2001",
    "org":"MIS Training Institute",
    "event":"WebSec 2001"
  },
  {
    "city":"Hong Kong",
    "country":"Hong Kong",
    "lat": 22.259589,
    "long": 114.16405299999997,
    "date":"Jun 2001",
    "org":"Hong Kong Computer Society",
    "event":"\u00a0"
  },
  {
    "city":"Baltimore",
    "country":"US",
    "lat": 39.308039,
    "long": -76.615819,
    "date":"May 2001",
    "org":"SANS Institute",
    "event":"SANS 2001"
  },
  {
    "city":"London",
    "country":"England",
    "lat": 51.499573,
    "long": 0.13571400000000722,
    "date":"Mar 2001",
    "org":"MIS Training Institute",
    "event":"WebSec UK 2001"
  },
  {
    "city":"Orlando",
    "country":"US",
    "lat": 28.493956,
    "long": -81.271904,
    "date":"Feb 2001",
    "org":"MIS Training Institute",
    "event":"InfoSec 2001"
  },
  {
    "city":"Orlando",
    "country":"US",
    "lat": 28.493956,
    "long": -81.271904,
    "date":"Apr 2000",
    "org":"MIS Training Institute",
    "event":"InfoSec 2000"
  },
  {
    "city":"Orlando",
    "country":"US",
    "lat": 28.493956,
    "long": -81.271904,
    "date":"Mar 2000",
    "org":"SANS Institute",
    "event":"SANS 2000"
  },
  {
    "city":"Copenhagen",
    "country":"Denmark",
    "lat": 55.680139,
    "long": 12.549420999999995,
    "date":"Sep 1998",
    "org":"European Security Forum",
    "event":"\u00a0"
  },
  {
    "city":"London",
    "country":"England",
    "lat": 51.499573,
    "long": 0.13571400000000722,
    "date":"Aug 1998",
    "org":"European Security Forum",
    "event":"\u00a0"
  }
]
